{
  "log" : {
    "version" : "1.2",
    "pages" : [ ],
    "entries" : [ {
      "startedDateTime" : "2021-10-28T03:45:09.822Z",
      "request" : {
        "method" : "POST",
        "url" : "http://192.168.29.193:9977/api/EngineScore",
        "httpVersion" : "",
        "cookies" : [ ],
        "headers" : [ {
          "name" : "Content-Type",
          "value" : "application/json"
        }, {
          "name" : "Authorization",
          "value" : "Basic YmNhZmFwcHM6QWRtaW4xMjM="
        } ],
        "queryString" : [ ],
        "postData" : {
          "mimeType" : "application/json",
          "text" : "{\n  \"RequestID_Konsumen\": \"143527\",\n  \"RequestID_Pasangan\": \"\"\n}\n",
          "comment" : ""
        },
        "headersSize" : 0,
        "bodySize" : 0,
        "comment" : ""
      },
      "response" : {
        "status" : 200,
        "statusText" : "",
        "httpVersion" : "",
        "cookies" : [ ],
        "headers" : [ {
          "name" : "Cache-Control",
          "value" : "no-cache"
        }, {
          "name" : "Server",
          "value" : "Microsoft-IIS/10.0"
        }, {
          "name" : "X-AspNet-Version",
          "value" : "4.0.30319"
        }, {
          "name" : "Pragma",
          "value" : "no-cache"
        }, {
          "name" : "Expires",
          "value" : "-1"
        }, {
          "name" : "#status#",
          "value" : "HTTP/1.1 200 OK"
        }, {
          "name" : "Content-Length",
          "value" : "109"
        }, {
          "name" : "Date",
          "value" : "Thu, 28 Oct 2021 03:47:54 GMT"
        }, {
          "name" : "Content-Type",
          "value" : "application/json; charset=utf-8"
        }, {
          "name" : "X-Powered-By",
          "value" : "ASP.NET"
        } ],
        "content" : {
          "size" : 109,
          "mimeType" : "application/json; charset=utf-8",
          "text" : "{\"result_konsumen\":\"Approve\",\"result_pasangan\":\"\",\"Final_result\":\"Approve\",\"errorMessage\":\"\",\"status\":\"Done\"}",
          "comment" : ""
        },
        "redirectURL" : "",
        "headersSize" : 205,
        "bodySize" : 109,
        "comment" : ""
      },
      "cache" : { },
      "timings" : {
        "comment" : "",
        "blocked" : -1,
        "send" : 0,
        "wait" : 0,
        "receive" : 0,
        "connect" : 42,
        "dns" : -1,
        "ssl" : -1
      },
      "comment" : "",
      "_katalonRequestInformation" : {
        "name" : "3",
        "testObjectId" : "Object Repository/EngineScore",
        "harId" : "f40421c2-8f7d-49f4-bf4c-00d916ccb207",
        "reportFolder" : null
      },
      "time" : 42
    } ],
    "comment" : ""
  }
}