{
  "log" : {
    "version" : "1.2",
    "pages" : [ ],
    "entries" : [ {
      "startedDateTime" : "2022-05-31T08:52:12.057Z",
      "request" : {
        "method" : "POST",
        "url" : "http://192.168.29.193:9977/api/EngineScore",
        "httpVersion" : "",
        "cookies" : [ ],
        "headers" : [ {
          "name" : "Content-Type",
          "value" : "application/json"
        }, {
          "name" : "Authorization",
          "value" : "Basic YmNhZmFwcHM6QWRtaW4xMjM="
        } ],
        "queryString" : [ ],
        "postData" : {
          "mimeType" : "application/json",
          "text" : "{\n  \"RequestID_Konsumen\": \"168474\",\n  \"RequestID_Pasangan\": \"\"\n}\n",
          "comment" : ""
        },
        "headersSize" : 0,
        "bodySize" : 0,
        "comment" : ""
      },
      "response" : {
        "status" : 200,
        "statusText" : "",
        "httpVersion" : "",
        "cookies" : [ ],
        "headers" : [ {
          "name" : "Cache-Control",
          "value" : "no-cache"
        }, {
          "name" : "Server",
          "value" : "Microsoft-IIS/10.0"
        }, {
          "name" : "X-AspNet-Version",
          "value" : "4.0.30319"
        }, {
          "name" : "Pragma",
          "value" : "no-cache"
        }, {
          "name" : "Expires",
          "value" : "-1"
        }, {
          "name" : "#status#",
          "value" : "HTTP/1.1 200 OK"
        }, {
          "name" : "Content-Length",
          "value" : "107"
        }, {
          "name" : "Date",
          "value" : "Tue, 31 May 2022 08:54:46 GMT"
        }, {
          "name" : "Content-Type",
          "value" : "application/json; charset=utf-8"
        }, {
          "name" : "X-Powered-By",
          "value" : "ASP.NET"
        } ],
        "content" : {
          "size" : 107,
          "mimeType" : "application/json; charset=utf-8",
          "text" : "{\"result_konsumen\":\"Reject\",\"result_pasangan\":\"\",\"Final_result\":\"Reject\",\"errorMessage\":\"\",\"status\":\"Done\"}",
          "comment" : ""
        },
        "redirectURL" : "",
        "headersSize" : 205,
        "bodySize" : 107,
        "comment" : ""
      },
      "cache" : { },
      "timings" : {
        "comment" : "",
        "connect" : 0,
        "blocked" : -1,
        "dns" : -1,
        "send" : 0,
        "wait" : 0,
        "receive" : 0,
        "ssl" : -1
      },
      "comment" : "",
      "_katalonRequestInformation" : {
        "name" : "1",
        "testObjectId" : "Object Repository/EngineScore",
        "harId" : "b87cd8d8-0157-4e7d-9d40-935c13842e95",
        "reportFolder" : null
      },
      "time" : 0
    } ],
    "comment" : ""
  }
}