Suite/Test/Step Name,Browser,Description,Tag,Start time,End time,Duration,Status
matriks 8 - watchlist bscore pefindo - single,,,,2022-05-25 09:33:57,2022-05-25 09:34:04,6.796s,ERROR
,,,,,,,
Test Cases/Engine_Scoring/Engine Scoring,,,,2022-05-25 09:33:57,2022-05-25 09:34:04,6.303s,ERROR
"markPassed(""Variasi data ke : "" + no)",,,,2022-05-25 09:34:00,2022-05-25 09:34:00,0.018s,PASSED
"reqdata = sendRequest(findTestObject(""Search_ME"", [""MID"":MID, ""source"":source, ""ip"":ip, ""userid"":userid, ""branch"":branch, ""tipekons"":tipekons, ""marital"":marital, ""penjamin"":penjamin, ... ]))",,data ME for scoring request,,2022-05-25 09:34:00,2022-05-25 09:34:04,3.372s,PASSED
slurper = new groovy.json.JsonSlurper(),,store json response to variable,,2022-05-25 09:34:04,2022-05-25 09:34:04,0.009s,PASSED
result = slurper.parseText(reqdata.getResponseBodyContent()),,,,2022-05-25 09:34:04,2022-05-25 09:34:04,0.018s,PASSED
reqid_kons = requestid1,,,,2022-05-25 09:34:04,2022-05-25 09:34:04,0.025s,ERROR
