{
  "log" : {
    "version" : "1.2",
    "pages" : [ ],
    "entries" : [ {
      "startedDateTime" : "2021-10-28T04:56:38.339Z",
      "request" : {
        "method" : "POST",
        "url" : "http://192.168.29.193:9977/api/EngineScore",
        "httpVersion" : "",
        "cookies" : [ ],
        "headers" : [ {
          "name" : "Content-Type",
          "value" : "application/json"
        }, {
          "name" : "Authorization",
          "value" : "Basic YmNhZmFwcHM6QWRtaW4xMjM="
        } ],
        "queryString" : [ ],
        "postData" : {
          "mimeType" : "application/json",
          "text" : "{\n  \"RequestID_Konsumen\": \"143576\",\n  \"RequestID_Pasangan\": \"143577\"\n}\n",
          "comment" : ""
        },
        "headersSize" : 0,
        "bodySize" : 0,
        "comment" : ""
      },
      "response" : {
        "status" : 200,
        "statusText" : "",
        "httpVersion" : "",
        "cookies" : [ ],
        "headers" : [ {
          "name" : "Cache-Control",
          "value" : "no-cache"
        }, {
          "name" : "Server",
          "value" : "Microsoft-IIS/10.0"
        }, {
          "name" : "X-AspNet-Version",
          "value" : "4.0.30319"
        }, {
          "name" : "Pragma",
          "value" : "no-cache"
        }, {
          "name" : "Expires",
          "value" : "-1"
        }, {
          "name" : "#status#",
          "value" : "HTTP/1.1 200 OK"
        }, {
          "name" : "Content-Length",
          "value" : "114"
        }, {
          "name" : "Date",
          "value" : "Thu, 28 Oct 2021 04:59:22 GMT"
        }, {
          "name" : "Content-Type",
          "value" : "application/json; charset=utf-8"
        }, {
          "name" : "X-Powered-By",
          "value" : "ASP.NET"
        } ],
        "content" : {
          "size" : 114,
          "mimeType" : "application/json; charset=utf-8",
          "text" : "{\"result_konsumen\":\"Approve\",\"result_pasangan\":\"Reject\",\"Final_result\":\"Reject\",\"errorMessage\":\"\",\"status\":\"Done\"}",
          "comment" : ""
        },
        "redirectURL" : "",
        "headersSize" : 205,
        "bodySize" : 114,
        "comment" : ""
      },
      "cache" : { },
      "timings" : {
        "comment" : "",
        "ssl" : -1,
        "connect" : 28,
        "wait" : 0,
        "blocked" : -1,
        "dns" : -1,
        "send" : 0,
        "receive" : 0
      },
      "comment" : "",
      "_katalonRequestInformation" : {
        "name" : "5",
        "testObjectId" : "Object Repository/EngineScore",
        "harId" : "59489490-6759-42b4-a61c-9084eb6b6d3d",
        "reportFolder" : null
      },
      "time" : 28
    } ],
    "comment" : ""
  }
}