{
  "log" : {
    "version" : "1.2",
    "pages" : [ ],
    "entries" : [ {
      "startedDateTime" : "2022-06-03T09:48:23.117Z",
      "request" : {
        "method" : "POST",
        "url" : "http://192.168.29.193:9977/api/EngineScore",
        "httpVersion" : "",
        "cookies" : [ ],
        "headers" : [ {
          "name" : "Content-Type",
          "value" : "application/json"
        }, {
          "name" : "Authorization",
          "value" : "Basic YmNhZmFwcHM6QWRtaW4xMjM="
        } ],
        "queryString" : [ ],
        "postData" : {
          "mimeType" : "application/json",
          "text" : "{\n  \"RequestID_Konsumen\": \"172440\",\n  \"RequestID_Pasangan\": \"\"\n}\n",
          "comment" : ""
        },
        "headersSize" : 0,
        "bodySize" : 0,
        "comment" : ""
      },
      "response" : {
        "status" : 200,
        "statusText" : "",
        "httpVersion" : "",
        "cookies" : [ ],
        "headers" : [ {
          "name" : "Cache-Control",
          "value" : "no-cache"
        }, {
          "name" : "Server",
          "value" : "Microsoft-IIS/10.0"
        }, {
          "name" : "X-AspNet-Version",
          "value" : "4.0.30319"
        }, {
          "name" : "Pragma",
          "value" : "no-cache"
        }, {
          "name" : "Expires",
          "value" : "-1"
        }, {
          "name" : "#status#",
          "value" : "HTTP/1.1 200 OK"
        }, {
          "name" : "Content-Length",
          "value" : "101"
        }, {
          "name" : "Date",
          "value" : "Fri, 03 Jun 2022 09:50:57 GMT"
        }, {
          "name" : "Content-Type",
          "value" : "application/json; charset=utf-8"
        }, {
          "name" : "X-Powered-By",
          "value" : "ASP.NET"
        } ],
        "content" : {
          "size" : 101,
          "mimeType" : "application/json; charset=utf-8",
          "text" : "{\"result_konsumen\":\"\",\"result_pasangan\":\"\",\"Final_result\":\"\",\"errorMessage\":\"\",\"status\":\"InProgress\"}",
          "comment" : ""
        },
        "redirectURL" : "",
        "headersSize" : 205,
        "bodySize" : 101,
        "comment" : ""
      },
      "cache" : { },
      "timings" : {
        "comment" : "",
        "ssl" : -1,
        "connect" : 0,
        "blocked" : -1,
        "dns" : -1,
        "send" : 0,
        "wait" : 0,
        "receive" : 0
      },
      "comment" : "",
      "_katalonRequestInformation" : {
        "name" : "15",
        "testObjectId" : "Object Repository/EngineScore",
        "harId" : "477bfebe-4a7f-4d97-adef-10c0ccf244c6",
        "reportFolder" : null
      },
      "time" : 0
    } ],
    "comment" : ""
  }
}