{
  "log" : {
    "version" : "1.2",
    "pages" : [ ],
    "entries" : [ {
      "startedDateTime" : "2021-10-26T02:53:39.582Z",
      "request" : {
        "method" : "POST",
        "url" : "http://192.168.29.193:9977/api/EngineScoreMobile/SearchME",
        "httpVersion" : "",
        "cookies" : [ ],
        "headers" : [ {
          "name" : "Content-Type",
          "value" : "application/json"
        }, {
          "name" : "Authorization",
          "value" : "Basic YmNhZmFwcHM6QWRtaXVuMTIz"
        } ],
        "queryString" : [ ],
        "postData" : {
          "mimeType" : "application/json",
          "text" : "{\n  \"MobileID\": \"135514\",\n  \"SourceApps\": \"Aprova & Mobile Entry\",\n  \"UserInfo\": {\n    \"ipAddress\": \"192.168.29.1\",\n    \"userid\": \"emobile\"\n  },\n  \"initiation\": {\n    \"Cabang\": \"DEPOK\",\n    \"TypeConsumen\": \"Perorangan\",\n    \"StatusPerkawinan\": \"Single\",\n    \"Penjamin\": \"Tidak Ada\",\n    \"TypePenjamin\": \"\",\n    \"Cluster\": \"\"\n  },\n  \"PersonalData\": {\n    \"Nama\": \"MAGHDALENA NENO\",\n    \"IdentityType\": \"KTP\",\n    \"IdentityNo\": \"3111075106820010\",\n    \"BirthPlace\": \"Bogor\",\n    \"BirthDate\": \"12-12-1992\",\n    \"alamatKTP\": \"CILEBUT POS\",\n    \"Kelurahan\": \"CILEBUT TIMUR\",\n    \"kecamatan\": \"SUKARAJA\",\n    \"Kabupaten\": \"KABUPATEN\",\n    \"Provinsi\": \"PROVINSI JAWA BARAT\",\n    \"KodePos\": \"10130\",\n    \"Jenkel\": \"Laki-laki\",\n    \"SupportPerson\": \"\",\n    \"NamaIbuKandung\": \"Leni\",\n    \"Agama\": \"Islam\"\n  },\n  \"Occuption\": {\n    \"Pekerjaan\": \"Wiraswasta\",\n    \"EconomyCode\": \"111202\",\n    \"EstablishedSince\": \"2008\",\n    \"JenisUsaha\": \"Makanan\",\n    \"jabatan\": \"Pemilik\",\n    \"totalPenghasilan\": \"25,000,000\",\n    \"Alamat\": \"\",\n    \"KodeFax\": \"\",\n    \"Kecamatan\": \"\",\n    \"KodePos\": \"\",\n    \"KodeNoTelp\": \"\",\n    \"NoTelp\": \"\",\n    \"ExtTelp\": \"\"\n  },\n  \"SposeData\": {\n    \"NamaSpouse\": \"\",\n    \"IdentityTypeSpouse\": \"\",\n    \"JenKel\": \"\",\n    \"NomorKTP\": \"\",\n    \"Agama\": \"\",\n    \"BirthDate\": \"\",\n    \"BirthPlace\": \"\",\n    \"Alamat\": \"\",\n    \"Kelurahan\": \"\",\n    \"Kecamatan\": \"\",\n    \"Kabupaten\": \"\",\n    \"Provinsi\": \"\",\n    \"Occupation_KTP\": \"\",\n    \"PekerjaanSpouse\": \"\",\n    \"NamaPerusahaan\": \"\",\n    \"Jabatan\": \"\",\n    \"Occupation_KartuNama\": \"\",\n    \"alamatPerusahaan\": \"\",\n    \"FaxPerusahaan\": \"\",\n    \"KecamatanPerusahaan\": \"\",\n    \"KodePosPerusahaan\": \"\",\n    \"KodeNomorTelpPerusahaan\": \"\",\n    \"NotelpPerusahaan\": \"\",\n    \"ExtTelpPerusahaan\": \"\"\n  },\n  \"Dealer\": {\n    \"DealerName\": \"Wahana Persada Jakarta\",\n    \"Cabang\": \"None\",\n    \"Alamat\": \"Jln. Alternatif Cibubur Rt. 001 Rw 007, Kampung Nagewer\",\n    \"Kota\": \"Bogor\",\n    \"NoHP\": \"0218234370\",\n    \"Fax\": \"02182494927\",\n    \"Authorize\": \"1\",\n    \"NoRek\": \"7160051510\"\n  },\n  \"Vehicle\": {\n    \"CarCondition\": \"NEW\",\n    \"Brand\": \"DATSUN\",\n    \"Model\": \"GO PANCA\",\n    \"Type\": \"GO PANCA T 1.2 M/T\",\n    \"Year\": \"2020\",\n    \"Kind\": \"Mb. Penumpang\",\n    \"Purpose\": \"Personal\",\n    \"Color\": \"Hitam\",\n    \"EngineNo\": \"e53737\",\n    \"BodyNo\": \"b63737\",\n    \"BPKBOwner\": \"AHMAD\",\n    \"PoliceNo\": \"\",\n    \"BPKBNumber\": \"\"\n  },\n  \"LoanData\": {\n    \"OTR\": \"250000000\",\n    \"DP\": \"75000000\",\n    \"DP_Percent\": \"30\",\n    \"Principal\": \"175000000\",\n    \"ResidualValue\": \"\",\n    \"Tenor\": \"36\",\n    \"FlatRate\": \"2.999999\",\n    \"EffectiveRate\": \"6.016893\",\n    \"Installment\": \"5298611\",\n    \"LoanType\": \"In Advance\",\n    \"TotalOutstanding\": \"\",\n    \"BiayaProcessPembiayaan\": \"13839000\",\n    \"AdmFee\": \"1000000\",\n    \"CarInsFee\": \"14000\",\n    \"LifeInsurance\": \"0\",\n    \"LifeInsuranceFee\": \"0\",\n    \"ProvisionPercent\": \"1.00\",\n    \"ProvisionalFee\": \"1750000\",\n    \"ProvisionalPayment\": \"Prepaid\",\n    \"FirstPayment\": \"95887700\",\n    \"HargaChasis\": \"\",\n    \"HargaKaroseri\": \"\",\n    \"KolomMutasiDebit\": \"\",\n    \"KolomMutasiKredit\": \"\",\n    \"KolomMutasiSaldo\": \"\",\n    \"Blacklist\": \"\",\n    \"plafon\": \"\",\n    \"RepeatOrder\": \"Yes\",\n    \"Tujuan\": \"Personal\"\n  },\n  \"FinancialData\": {\n    \"cabangKCUBCA\": \"\",\n    \"NomorRekening\": \"\"\n  },\n  \"contactPersonData\": {\n    \"HubunganDenganDebitor\": \"\"\n  },\n  \"PenjaminPersonalData\": {\n    \"NoKTP\": \"\",\n    \"Nama\": \"\",\n    \"BirthDate\": \"\",\n    \"BirthPlace\": \"\",\n    \"Jenkel\": \"\",\n    \"Alamat\": \"\",\n    \"Kelurahan\": \"\",\n    \"Kecamatan\": \"\",\n    \"kabupaten\": \"\",\n    \"Provinsi\": \"\",\n    \"Agama\": \"\",\n    \"Occupation\": \"\"\n  },\n  \"PenjaminPasanganData\": {\n    \"NoKTP\": \"\",\n    \"Nama\": \"\",\n    \"BirthDate\": \"\",\n    \"BirthPlace\": \"\",\n    \"Jenkel\": \"\",\n    \"Alamat\": \"\",\n    \"Kelurahan\": \"\",\n    \"Kecamatan\": \"\",\n    \"kabupaten\": \"\",\n    \"Provinsi\": \"\",\n    \"Agama\": \"\",\n    \"Occupation\": \"\"\n  },\n  \"Insurance\": {\n    \"CarInsuranceCorp\": \"NEW - SINAR MAS\",\n    \"BranchCarInsurance\": \"(NSMS012) TIPE 3 - W2 - CS\",\n    \"InsuranceType\": \"TLO,ALL RISK,ALL RISK\",\n    \"RSCC\": \"No\",\n    \"RSMB\": \"Yes\",\n    \"TJH\": \"\",\n    \"InsuranceDeduction\": \"\",\n    \"InsurancePayment\": \"\",\n    \"LifeInsuranceCorp\": \"(01299) PT. ASURANSI JIWA BCA\",\n    \"BranchLifeInsurance\": \"(01299-20) FULL COVER (ENTRY>01-09-2018)\"\n  },\n  \"OtherData\": {\n    \"Bukti\": \"\",\n    \"LuasTanah\": \"\",\n    \"LuasBangunan\": \"\"\n  },\n  \"General\": {\n    \"JenisCluster\": \"\",\n    \"SalesType\": \"\",\n    \"SalesAgent\": \"\",\n    \"SalesOffice\": \"\",\n    \"Packet\": \"(000) Non Packet\"\n  },\n  \"BPKB\": {\n    \"BodyNumber\": \"b63737\",\n    \"BPKBOwner\": \"AHMAD\",\n    \"Color\": \"Hitam\",\n    \"Engineno\": \"e53737\"\n  },\n  \"KartuKeluarga\": {\n    \"Pendidikan\": \"\"\n  },\n  \"NPWP\": {\n    \"Nomor\": \"\"\n  },\n  \"CoverBukuTabungan\": {\n    \"Cabang\": \"\"\n  },\n  \"KartuNamaPasangan\": {\n    \"KodeFax\": \"\"\n  },\n  \"FAP\": {\n    \"HomeAddress\": \"\",\n    \"HomeStatus\": \"\",\n    \"Kelurahan\": \"\",\n    \"Kecamatan\": \"\",\n    \"Kabupaten\": \"\",\n    \"Provinsi\": \"\",\n    \"KodePos\": \"\",\n    \"LamaTinggalTahun\": \"\",\n    \"LamaTinggalBulan\": \"\",\n    \"SupportPerson\": \"\",\n    \"MailAddress\": \"\",\n    \"OtherMailAddress\": \"\",\n    \"KodyaOther\": \"\",\n    \"Provinsiother\": \"\",\n    \"PostalCodeother\": \"\",\n    \"EmailOffice\": \"\",\n    \"KodeTelpOffice1\": \"\",\n    \"NomortelpOffice1\": \"\",\n    \"KodeTelpOffice2\": \"\",\n    \"NomorTelpOffice2\": \"\",\n    \"KodeTelpOffice3\": \"\",\n    \"NomorTelepon3\": \"\",\n    \"PrefixHandphone1\": \"\",\n    \"NomorHandphone1\": \"\",\n    \"PrefixHandphone2\": \"\",\n    \"NomorHandphone2\": \"\",\n    \"NamaContactPerson\": \"\",\n    \"AlamatContactPerson\": \"\",\n    \"KotaContactPerson\": \"\",\n    \"KodePosContactPerson\": \"\",\n    \"kodeTelpContactperson\": \"\",\n    \"NomorTeleponContactPerson\": \"\",\n    \"RelationshipwithDebitor\": \"\",\n    \"PaymentMethod\": \"\"\n  }\n}\n",
          "comment" : ""
        },
        "headersSize" : 0,
        "bodySize" : 0,
        "comment" : ""
      },
      "response" : {
        "status" : 200,
        "statusText" : "",
        "httpVersion" : "",
        "cookies" : [ ],
        "headers" : [ {
          "name" : "Cache-Control",
          "value" : "no-cache"
        }, {
          "name" : "Server",
          "value" : "Microsoft-IIS/10.0"
        }, {
          "name" : "X-AspNet-Version",
          "value" : "4.0.30319"
        }, {
          "name" : "Pragma",
          "value" : "no-cache"
        }, {
          "name" : "Expires",
          "value" : "-1"
        }, {
          "name" : "#status#",
          "value" : "HTTP/1.1 200 OK"
        }, {
          "name" : "Content-Length",
          "value" : "64"
        }, {
          "name" : "Date",
          "value" : "Tue, 26 Oct 2021 02:56:23 GMT"
        }, {
          "name" : "Content-Type",
          "value" : "application/json; charset=utf-8"
        }, {
          "name" : "X-Powered-By",
          "value" : "ASP.NET"
        } ],
        "content" : {
          "size" : 64,
          "mimeType" : "application/json; charset=utf-8",
          "text" : "{\"status\":\"Done\",\"data\":{\"requestid1\":\"143461\",\"requestid2\":\"\"}}",
          "comment" : ""
        },
        "redirectURL" : "",
        "headersSize" : 204,
        "bodySize" : 64,
        "comment" : ""
      },
      "cache" : { },
      "timings" : {
        "comment" : "",
        "connect" : 81,
        "ssl" : -1,
        "wait" : 0,
        "receive" : 0,
        "blocked" : -1,
        "send" : 0,
        "dns" : -1
      },
      "comment" : "",
      "_katalonRequestInformation" : {
        "name" : "18",
        "testObjectId" : "Object Repository/Search_ME",
        "harId" : "0d36a052-5a3f-471e-b2a1-48fc22fe5899",
        "reportFolder" : null
      },
      "time" : 81
    } ],
    "comment" : ""
  }
}